<?xml version="1.0" encoding="UTF-8" standalone="no"?>
<svg
   xmlns:dc="http://purl.org/dc/elements/1.1/"
   xmlns:cc="http://creativecommons.org/ns#"
   xmlns:rdf="http://www.w3.org/1999/02/22-rdf-syntax-ns#"
   xmlns:svg="http://www.w3.org/2000/svg"
   xmlns="http://www.w3.org/2000/svg"
   xmlns:sodipodi="http://sodipodi.sourceforge.net/DTD/sodipodi-0.dtd"
   xmlns:inkscape="http://www.inkscape.org/namespaces/inkscape"
   sodipodi:docname="metroid.svg"
   inkscape:version="1.0 (4035a4fb49, 2020-05-01)"
   id="svg8"
   version="1.1"
   viewBox="0 0 210 297"
   height="297mm"
   width="210mm">
  <defs
     id="defs2" />
  <sodipodi:namedview
     inkscape:window-maximized="1"
     inkscape:window-y="-11"
     inkscape:window-x="2869"
     inkscape:window-height="2066"
     inkscape:window-width="4096"
     showgrid="false"
     inkscape:document-rotation="0"
     inkscape:current-layer="layer1"
     inkscape:document-units="mm"
     inkscape:cy="560"
     inkscape:cx="400"
     inkscape:zoom="0.35"
     inkscape:pageshadow="2"
     inkscape:pageopacity="0.0"
     borderopacity="1.0"
     bordercolor="#666666"
     pagecolor="#ffffff"
     id="base" />
  <metadata
     id="metadata5">
    <rdf:RDF>
      <cc:Work
         rdf:about="">
        <dc:format>image/svg+xml</dc:format>
        <dc:type
           rdf:resource="http://purl.org/dc/dcmitype/StillImage" />
        <dc:title></dc:title>
      </cc:Work>
    </rdf:RDF>
  </metadata>
  <g
     id="layer1"
     inkscape:groupmode="layer"
     inkscape:label="Layer 1">
    <path
       d=""
       id="path24"
       style="fill:#000000;stroke-width:0.264583" />
    <path
       id="path40"
       d="m 175.782,64.356732 c -7.2963,4.25864 -15.00629,7.87462 -22.43824,11.89404 -15.84833,8.57127 -31.89126,16.7855 -47.73225,25.371998 -6.62785,3.59277 -13.29221,7.16025 -19.99043,10.61757 -2.90698,1.5003 -7.12129,2.88005 -9.52239,5.10184 -0.6607,0.61155 -0.47283,1.68369 -0.47283,2.4982 0,1.98149 0.17971,3.94586 0.20317,5.91553 0.0963,8.09082 0.40817,16.19552 0.40878,24.2741 v 6.73147 c 0,0.69681 -0.23356,1.94397 0.32699,2.47698 0.82369,0.78268 2.88556,0.68029 3.95667,0.87325 3.63969,0.65622 7.45297,0.9524 11.01514,1.95335 -12.68903,12.68904 -24.91583,26.06264 -36.95578,39.36892 -3.81103,4.21206 -7.89275,8.18241 -11.65065,12.44302 -1.37281,1.5564 -3.33891,2.99408 -4.22542,4.89562 7.44562,-3.3843 14.63136,-7.67286 21.82629,-11.56406 15.50216,-8.38415 31.12551,-16.56554 46.71233,-24.78977 7.55352,-3.98564 15.17172,-7.87765 22.64222,-12.01873 2.55062,-1.41382 6.6201,-2.55898 8.64831,-4.65635 0.54831,-0.56707 0.32699,-1.73427 0.32699,-2.45474 0,-2.19222 -0.0363,-4.34588 -0.18583,-6.52749 -0.5373,-7.84584 -0.0741,-15.80549 -0.41817,-23.66214 -0.0977,-2.23526 -0.008,-4.49397 -0.008,-6.73147 0,-0.69457 0.23438,-1.94703 -0.32699,-2.47678 -0.76432,-0.72108 -2.94022,-0.68274 -3.95667,-0.86571 -3.58033,-0.64438 -7.20206,-1.3006 -10.81115,-1.75711 3.5481,-5.05677 8.62791,-9.35695 12.83283,-13.87092 8.55917,-9.188458 17.05123,-18.459928 25.7281,-27.537828 3.59358,-3.75955 7.3065,-7.49756 10.71671,-11.42311 0.97116,-1.1181 3.15318,-2.56749 3.35023,-4.07968 m -90.77286,99.952158 -9.38326,-2.62813 -3.666,-1.33304 -0.20969,-2.97429 -0.20399,-6.93545 -0.61195,-24.88605 -0.20398,-7.34343 0.47283,-2.72583 4.2188,-2.22016 8.77131,-4.48989 28.76174,-14.777628 9.58725,-4.90581 4.07968,-2.4982 c -7.09926,-1.64247 -13.81747,-3.5795 -21.21434,-3.25578 -20.17993,0.88366 -39.37075,12.03587 -49.09711,29.977688 -9.32798,17.20646 -9.46771,37.63607 -0.72536,55.07568 2.02678,4.04316 4.64736,7.79892 7.59779,11.21912 0.95423,1.106 2.12347,2.87883 3.46772,3.51831 1.38914,0.66091 3.83021,-3.05363 4.69245,-3.92628 3.07873,-3.11585 5.95633,-6.42243 8.98244,-9.58725 1.52824,-1.59821 3.73984,-3.27884 4.68367,-5.30358 m 63.23504,-78.941808 -3.85815,4.69164 -8.95816,9.79123 -22.49128,24.682058 -12.0167,13.25896 c 4.0907,-2.17712 8.04778,-4.69571 12.03506,-7.05846 1.73896,-1.03053 3.76024,-2.70809 5.71155,-3.24293 2.63833,-0.72293 6.27761,-0.10078 8.9753,0.0838 1.45441,0.0998 3.26191,-0.3323 4.66144,0.0832 0.76759,0.22784 0.64092,1.13231 0.64215,1.77099 0.004,1.91479 0.20397,3.79961 0.20397,5.71154 0,6.46018 0.61196,12.91974 0.61196,19.37848 0,1.57639 0.90038,5.37417 -0.123,6.62357 -1.1619,1.41809 -3.99013,2.2528 -5.58855,3.13931 -4.53498,2.51533 -9.10789,4.96314 -13.66693,7.43482 -10.53761,5.71257 -21.07399,11.43167 -31.61752,17.13465 -5.42965,2.93676 -10.82604,6.53993 -16.5227,8.91227 l 4.65716,-5.50757 10.82726,-11.83108 32.04385,-35.08525 -12.64701,7.34568 -5.0996,2.91493 -4.48765,0.14258 -9.99522,-0.20399 -0.6199,-23.66214 -0.20399,-6.52749 -0.073,-2.99264 4.36464,-2.69055 12.64701,-6.84632 30.39362,-16.499238 20.19441,-10.95211 m -18.76653,33.657358 9.38327,2.47147 3.54871,1.26205 0.32719,2.99795 0.20378,6.52749 0.61195,25.29401 0.20398,7.13944 -0.32698,2.77623 -4.9766,2.78112 -11.21912,5.71441 -25.498,13.05497 -13.87091,7.08681 v 0.40797 c 5.6628,1.60699 11.22239,2.99693 17.13466,3.25579 17.32476,0.75862 34.63158,-6.76493 46.04204,-19.77849 15.44363,-17.61341 18.72756,-43.53998 8.26808,-64.45895 -2.01292,-4.02582 -4.45399,-7.74221 -7.31527,-11.21912 -1.14619,-1.3928 -2.43843,-3.20316 -3.95423,-4.20675 -1.37995,-0.913858 -3.99095,2.85189 -4.85808,3.79062 -3.2356,3.50323 -6.56013,6.92179 -9.81061,10.41135 -1.23125,1.32181 -3.40205,2.93921 -3.89386,4.69163 z"
       style="fill:#1c1d18;stroke:none;stroke-width:0.203984" />
  </g>
</svg>
