<?xml version="1.0" encoding="UTF-8" standalone="no"?>
<svg
   xmlns:dc="http://purl.org/dc/elements/1.1/"
   xmlns:cc="http://creativecommons.org/ns#"
   xmlns:rdf="http://www.w3.org/1999/02/22-rdf-syntax-ns#"
   xmlns:svg="http://www.w3.org/2000/svg"
   xmlns="http://www.w3.org/2000/svg"
   xmlns:sodipodi="http://sodipodi.sourceforge.net/DTD/sodipodi-0.dtd"
   xmlns:inkscape="http://www.inkscape.org/namespaces/inkscape"
   sodipodi:docname="z-sword.svg"
   inkscape:version="1.0 (4035a4fb49, 2020-05-01)"
   id="svg24395"
   version="1.1"
   viewBox="0 0 210 297"
   height="297mm"
   width="210mm">
  <defs
     id="defs24389" />
  <sodipodi:namedview
     inkscape:window-maximized="1"
     inkscape:window-y="-11"
     inkscape:window-x="2869"
     inkscape:window-height="2066"
     inkscape:window-width="4096"
     showgrid="false"
     inkscape:document-rotation="0"
     inkscape:current-layer="layer1"
     inkscape:document-units="mm"
     inkscape:cy="686.64271"
     inkscape:cx="167.88116"
     inkscape:zoom="1.1781053"
     inkscape:pageshadow="2"
     inkscape:pageopacity="0.0"
     borderopacity="1.0"
     bordercolor="#666666"
     pagecolor="#ffffff"
     id="base" />
  <metadata
     id="metadata24392">
    <rdf:RDF>
      <cc:Work
         rdf:about="">
        <dc:format>image/svg+xml</dc:format>
        <dc:type
           rdf:resource="http://purl.org/dc/dcmitype/StillImage" />
        <dc:title />
      </cc:Work>
    </rdf:RDF>
  </metadata>
  <g
     id="layer1"
     inkscape:groupmode="layer"
     inkscape:label="Layer 1">
    <path
       transform="scale(0.26458333)"
       d="M 132.41602 146.8457 L 132.41602 1045.7461 L 619.63867 1045.7461 L 619.63867 146.8457 L 132.41602 146.8457 z M 376.53711 170.17188 C 379.34804 170.25899 382.11617 171.84601 384.78125 171.82617 C 386.87802 171.81075 388.92632 170.09305 390.98828 170.58008 C 392.70759 170.98615 393.22888 173.01794 393.80469 174.45117 C 395.23856 178.02022 396.53701 181.63666 398.05664 185.17188 C 400.65507 191.21576 406.93064 194.46846 408.70312 200.80469 C 409.7716 204.62583 405.78681 205.17491 404.08984 207.95898 C 402.48086 210.59774 402.86454 217.30772 400.5918 219.10742 C 399.49827 219.97358 397.25472 219.56641 395.94727 219.56641 L 397.28711 228.05273 L 395.94922 241.45508 L 397.2207 247.70703 L 396.00391 252.17383 L 397.05859 255.74805 L 395.95117 262.44922 L 397.28711 270.48828 L 395.95508 282.54883 L 397.28906 292.37695 L 395.94922 304.88477 L 397.26953 318.28516 L 395.94727 325.43164 C 400.32615 326.09585 402.15786 329.55412 405.08594 332.42188 C 405.93376 333.25228 406.32734 334.757 407.58789 335.10547 C 409.23308 335.56064 413.73806 333.47266 416.04883 333.47266 L 416.04883 347.32031 C 412.66109 348.0216 410.47709 349.37048 408.00781 351.78711 C 412.96651 350.35856 416.9629 347.05606 421.41016 344.62695 C 422.83107 343.85105 424.89544 344.0953 426.0957 343.03125 C 428.73162 340.69327 430.79771 336.59292 433.4707 333.91992 C 434.97114 332.41949 440.12358 325.01679 442.30078 325.39648 C 443.89635 325.67522 442.88388 329.31518 442.85742 330.3457 C 442.77616 333.65925 440.64233 342.37716 442.99414 344.84961 C 445.19636 347.1657 448.52691 348.35596 450.82422 350.64258 C 452.28043 352.0921 452.3283 354.24547 454.04492 355.49219 C 455.871 356.81888 458.0678 356.97217 459.82422 358.53516 C 468.17822 365.96896 474.46272 375.83768 479.49414 385.73633 C 480.37636 387.47219 481.83224 389.55875 481.95508 391.54297 C 482.09802 393.85415 480.42615 395.42001 481.45312 397.79688 C 482.81508 400.9487 485.73346 401.93461 487.48047 404.57812 C 489.40568 407.49101 490.31112 412.28082 491.09375 415.66406 L 444.19141 404.33008 L 432.57617 401.42578 L 428.00781 399.77734 L 427.47461 395.11523 L 425.42969 381.71484 C 421.7208 384.53078 418.35876 387.53066 414.26172 389.81641 C 412.46871 390.817 409.13818 391.64966 408.02148 393.45117 C 405.77686 397.07249 407.5625 406.50151 407.5625 410.75 L 410.24219 410.75 L 410.24219 418.34375 C 408.94993 418.34466 407.05175 418.05368 406.04492 419.06055 C 404.72851 420.37783 404.91589 424.42647 406.73438 425.2207 C 408.65649 426.05968 411.75226 425.49023 413.81641 425.49023 L 429.44922 425.49023 L 484.39258 425.49023 C 490.3349 425.49023 496.06887 425.85936 501.85352 426.35742 C 504.66276 426.59954 506.25888 425.1989 508.96094 426.83203 L 508.96094 427.27734 L 508.06836 428.17188 C 510.49837 428.67217 511.98078 427.73573 512.98047 425.49023 C 527.78337 425.49023 543.41805 424.08194 558.09766 425.9375 C 558.27408 431.50285 566.28408 433.76414 565.91406 438.46289 C 565.55402 443.0303 560.98099 447.70251 558.54297 451.39844 C 552.23838 460.95671 545.83769 470.45858 539.48438 479.98828 C 537.12319 483.53053 534.2603 490.38301 529.95508 491.60156 C 528.02 488.44524 524.59601 489.85624 522.63281 492.62305 C 520.40917 495.75703 524.07889 501.92851 517.00195 500.98242 C 515.73112 504.70114 513.87818 507.41374 509.85352 508.12891 L 514.32031 509.91602 L 514.76758 510.36328 L 512.08789 513.49023 L 510.30078 511.70312 C 509.58876 514.21889 508.82302 516.54833 512.08789 517.0625 C 513.42977 522.64123 506.4458 529.54518 503.45117 534.03711 C 493.78881 548.53043 484.94273 564.68212 473.06836 577.14258 C 471.49868 578.78951 471.71707 581.24143 470.74414 583.17383 C 469.17851 586.2837 466.43521 589.6593 464.44922 592.51367 C 462.39176 595.47032 458.81714 597.41018 456.98438 600.19531 C 455.75822 602.05847 456.34955 604.7321 455.04297 606.84766 C 448.38235 617.63522 440.86219 627.91338 433.98047 638.5625 C 429.71187 645.16904 425.30776 651.7487 420.83594 658.2168 C 418.52434 661.56251 414.98254 665.52538 413.68359 669.38477 C 412.67265 672.38654 413.36914 676.51349 413.36914 679.6582 L 413.36914 700.65234 L 413.36914 745.32227 C 413.36914 752.36213 414.11155 759.23727 405.77539 760.95703 L 409.48828 767.65625 L 411.03516 775.69727 L 413.32227 781.95117 L 413.2168 799.37109 L 409.97461 806.51953 L 411.58203 811.87891 C 420.94335 811.87891 437.75068 815.09468 445 807.77344 C 447.937 804.81188 448.31706 800.08119 449.41992 796.24414 C 451.51983 788.93627 453.86593 781.6346 457.25586 774.80469 C 460.0142 769.24784 465.10757 763.30148 466.67188 757.38281 C 467.00825 756.10975 468.58699 752.70659 467.86914 751.55859 C 466.59741 749.52169 462.12126 751.76396 460.27148 751.94727 C 454.84552 752.48778 445.18618 752.39372 441.95703 747.10938 L 447.31641 746.66211 L 447.31641 746.21484 L 439.27734 745.32227 C 440.45304 743.65153 442.70924 743.6202 444.63672 743.53516 L 432.57617 730.58203 L 438.38281 734.60156 L 437.49023 732.81445 L 452.23047 742.64258 L 443.29688 731.92188 L 449.99805 736.83594 L 445.08398 727.45508 L 461.16406 741.70898 L 474.56445 745.32227 L 471.88477 743.08789 C 473.41555 737.11563 472.13115 731.83733 475.45898 726.11523 L 476.35156 728.79492 L 479.0332 726.56055 C 479.87075 731.41161 482.00214 733.52882 480.37305 738.62109 L 480.81836 738.62109 C 485.23791 728.00323 490.29724 717.79291 490.58789 706.01367 C 490.69689 701.60482 489.63308 696.94621 488.89648 692.61328 C 488.28855 689.03978 488.20109 684.71064 486.62695 681.44531 C 483.22273 689.57957 481.91298 693.7513 484.39258 702.43945 L 485.28516 702.43945 L 485.73242 694.8457 L 486.17969 694.8457 C 488.05626 698.19588 487.4276 707.1477 481.40039 703.69922 C 476.21401 700.72874 476.35156 691.38913 476.35156 686.35938 C 470.66519 689.86591 461.80439 694.20295 454.91016 692.16602 L 457.14453 687.25195 C 449.10589 683.41486 455.56477 672.49433 461.16406 669.83203 C 452.46964 666.15576 442.38967 663.91727 437.9375 654.19727 C 450.62443 650.41381 465.95956 650.81205 477.24609 657.77148 C 474.37479 653.89422 471.94175 649.59143 468.7832 645.96875 C 468.19927 645.29872 466.75126 642.86914 468.75781 642.86914 C 470.1765 642.86914 470.49991 645.64314 471.03906 646.60352 C 472.87228 649.86438 475.26659 653.14342 477.68945 655.98438 C 471.94903 642.59256 479.31419 632.26932 483.05078 619.35547 L 483.94336 619.35547 C 487.03713 623.93852 491.70587 629.10672 493.09375 634.54297 C 494.62189 640.52864 492.90427 646.02635 492.43164 651.96289 L 492.87695 651.96289 L 496.89844 638.11523 C 500.13965 639.91093 494.97099 648.3416 494.21875 651.51758 L 494.66406 651.51758 C 496.32532 647.96637 500.15681 646.29046 503.59766 644.81641 C 511.40495 641.47066 520.5359 638.36679 529.06055 637.66992 C 526.25935 649.7708 517.73784 657.44411 506.2793 661.34375 C 512.38066 663.97029 519.34332 666.29264 523.4082 672.06836 C 524.99844 674.33309 524.88513 679.24685 521.45898 679.83203 C 519.33451 680.19834 516.58411 678.83147 514.76562 677.87109 L 514.76562 677.42578 L 522.35938 677.42578 C 518.75053 672.75338 512.12155 671.36418 506.72461 669.83203 C 511.42381 676.07233 511.17839 680.40473 512.5332 687.69922 C 508.11187 688.84256 502.07477 689.51235 497.79102 687.51562 C 495.16802 686.29166 493.25679 683.98228 490.64453 682.78516 C 494.18323 697.14626 495.76787 712.7935 489.30469 726.56055 C 495.9412 720.49448 499.02238 710.94999 506.2793 705.35742 C 509.35477 702.9855 513.66631 701.32776 517.44531 700.50586 C 519.37726 700.08149 522.28993 700.37985 523.97266 699.29883 C 525.57223 698.2759 526.45646 695.80106 527.76172 694.39844 C 529.94647 692.05332 532.8555 690.20508 536.20703 690.53125 C 537.62794 690.66973 541.40519 692.54002 542.55273 691.36523 C 543.41662 690.48079 542.2291 688.26592 542.01367 687.25195 C 543.92505 688.76622 543.52096 690.77219 544.96289 692.38477 C 547.82259 695.58308 551.76451 693.25535 554.52148 691.71875 C 553.84295 696.22587 551.12172 697.41003 546.92773 696.63281 C 548.60505 700.52796 551.83311 707.21032 548.07422 711.13672 C 545.93814 713.36573 541.36485 713.82029 538.43945 714.05273 C 541.26612 716.50954 549.81938 717.42701 543.35352 722.98828 C 545.16485 716.12266 540.28793 717.02824 535.31445 715.49609 C 532.39088 714.59377 529.65087 712.88229 527.32227 710.92578 C 525.12009 709.07204 525.36818 703.60514 522.74609 702.7832 C 519.21991 701.67988 513.19516 704.6633 510.29883 706.42773 C 500.24559 712.54739 494.35164 726.46708 487.96484 735.94141 L 496.00391 732.81445 L 494.66406 735.49414 L 501.36523 730.13477 L 499.13086 735.94141 L 502.25781 734.60156 C 500.88649 740.36833 493.40472 739.447 488.85742 741.30078 L 488.85742 741.74805 C 498.70071 741.82848 506.80726 743.01241 516.55273 740.4082 C 515.34933 742.85609 513.09303 743.38251 510.74609 744.42773 L 513.42578 744.42773 C 511.96469 746.34853 508.8772 745.84073 506.72461 745.50586 C 502.25725 744.80899 495.21561 742.65918 491.53711 746.21484 L 512.08594 748.44922 L 512.08594 748.89648 C 501.41452 753.61798 490.37777 745.5993 479.92383 748.44922 L 479.92383 748.89648 L 488.41016 752.84961 L 499.57812 752.91602 L 496.45117 754.70312 L 499.13086 758.27539 C 492.38535 761.12081 486.40051 755.79715 480.81641 752.91602 C 482.19669 756.18576 482.08994 763.33164 478.48828 765.4043 C 475.18902 767.30272 470.71092 763.48374 468.00977 764.99805 C 465.48595 766.40959 463.85777 771.42206 462.61328 773.91016 C 459.17554 780.78474 456.23955 787.89629 454.29688 795.35156 C 453.55851 798.18356 452.31677 801.31018 452.77148 804.28516 C 453.31245 807.82295 456.64274 810.01534 459.82227 810.9668 C 466.47665 812.95456 474.38822 811.87891 481.26367 811.87891 C 484.27395 811.87891 488.51843 812.67936 491.0918 810.86133 C 500.0873 804.51388 508.39436 796.01632 516.55273 788.61914 C 520.52203 785.0188 524.33686 780.16784 529.95312 780.16406 C 528.11631 784.26912 529.62926 790.35205 535.3125 788.1543 C 537.81088 787.18946 538.86369 784.74764 540.80273 783.08594 C 541.72294 782.2953 544.50095 781.9987 544.86719 780.9043 C 545.27636 779.68483 543.36829 777.71996 542.9082 776.58984 C 537.93068 778.21134 538.25085 779.60054 537.54688 784.18359 C 532.69804 781.92332 536.86444 778.59492 533.08008 776.14258 C 534.41123 771.04139 540.89784 767.35297 544.69336 764.01172 L 566.58203 744.80273 C 570.34005 741.49724 574.20783 736.90205 578.64258 734.60156 L 551.99023 814.55859 L 546.33203 831.5332 L 543.23047 838.83594 L 537.54688 840.4668 L 538.88672 837.33984 C 533.03325 836.82617 531.85045 837.41233 528.61328 842.70117 C 530.07993 843.47839 530.46275 844.17092 530.40039 845.82812 L 526.82617 845.82812 L 531.74023 849.35156 L 541.12109 846.7207 C 540.52877 849.28024 539.56162 855.40811 537.31836 856.98047 C 536.09708 857.83831 534.03721 857.38415 532.63281 857.48242 C 527.22427 857.85316 523.49916 857.43319 518.33984 856.25391 C 516.65402 855.86964 514.74877 856.64587 512.97852 856.41797 C 506.89057 855.63632 503.50512 854.18081 497.3457 856.10156 L 497.79102 857.44141 C 484.84678 859.65254 470.63636 857.54874 457.58984 857.44141 C 457.03149 852.70649 450.88516 854.45216 447.7793 855.14453 C 435.97103 857.77119 423.89892 857.88867 411.58008 857.88867 C 414.75919 869.03359 412.91992 882.46081 412.91992 894.07031 C 412.91992 912.67504 413.63805 932.08834 409.60352 950.35352 C 408.71548 954.37376 407.87243 958.63949 406.20312 962.41406 C 404.95955 965.22373 402.64348 967.92095 401.87695 970.90039 C 401.28961 973.18746 401.99694 975.71263 401.60742 978.04883 C 400.97624 981.83675 399.26108 985.63238 397.92188 989.21484 C 394.21121 999.14034 391.09847 1009.2886 387.18945 1019.1426 C 386.59357 1020.6435 384.63636 1028.0009 382.58203 1027.666 C 380.39856 1027.3087 378.78215 1020.5198 378.09961 1018.6973 C 374.44344 1008.9237 371.00068 999.07333 367.57812 989.21484 C 365.22093 982.42515 366.63391 975.76899 364.6582 969.11328 C 363.37307 964.78485 359.90128 962.35027 358.18555 958.39258 C 354.7688 950.51294 353.6115 940.11467 353.23047 931.5918 C 352.96603 925.68651 358.40686 919.33056 357.54297 913.72461 C 356.92161 909.69098 354.0384 906.10474 353.08203 902.11133 C 351.93449 897.31832 352.61719 891.82848 352.61719 886.92383 C 352.61719 879.43726 350.65477 868.72108 354.20508 861.91797 C 355.08729 860.225 356.77542 859.30467 357.97656 857.88867 C 350.22066 857.88867 342.47374 857.53514 334.75 857.44141 C 329.92975 857.38781 324.79246 858.16919 320.45508 855.6543 L 321.34766 855.20703 L 321.34766 854.76172 L 311.96875 854.76172 C 312.03084 858.79088 304.91457 857.44141 302.14062 857.44141 C 291.40394 857.44141 280.7259 858.29014 269.97852 857.44141 L 269.97852 856.99414 L 271.76562 856.54883 L 271.76562 855.6543 L 265.51172 854.76172 L 261.49219 851.1875 L 261.9375 849.84766 C 257.12483 848.94983 253.51192 852.34914 248.53711 849.84766 C 251.85737 856.26216 242.9902 856.4265 239.15625 855.20703 L 239.15625 857.44141 L 226.65039 857.86914 L 222.19531 856.72656 L 221.73633 852.08008 L 221.28906 852.08008 C 218.28422 861.35338 201.43975 857.88867 193.59375 857.88867 C 194.24075 855.85623 195.5848 853.19689 197.375 851.92383 C 198.88031 850.85622 200.45129 851.65676 201.64844 849.84766 C 203.52677 847.01116 203.14407 843.79074 204.56445 840.91406 C 208.03444 833.88762 213.45213 827.33869 217.79102 820.8125 C 228.68042 804.43233 239.56044 788.04257 250.47266 771.67578 C 255.5645 764.03736 260.17023 754.89377 266.29883 748.06836 C 268.83825 745.24063 271.54042 750.67357 273.68945 747.85938 C 275.65896 745.2775 272.27907 739.97866 273.80273 736.83398 C 279.19698 725.7069 288.07694 715.47792 294.83984 705.11914 C 299.887 697.38691 304.67217 689.25795 310.25 681.89648 C 312.10957 679.44414 315.84261 678.40731 317.09961 675.62891 C 318.11538 673.38651 318.15578 670.73259 319.23633 668.49023 C 320.89534 665.04176 323.53145 661.83112 325.66797 658.66406 C 327.20682 656.38145 328.71554 653.32642 331.62305 652.85742 C 331.85443 649.78417 334.17714 648.55054 335.77539 646.15625 C 337.95123 642.89539 337.67047 638.35334 342.34375 637.66992 C 340.92728 629.8528 351.02794 624.81814 352.49219 617.56836 C 353.54688 612.34921 352.40161 606.35979 352.63477 601.04102 C 352.82996 596.59599 354.50854 592.09311 354.34375 587.63867 C 354.21197 584.06649 352.35267 581.09242 352.6582 577.36523 C 353.05932 572.47528 356.70443 568.31951 357.53125 563.51758 C 351.02518 561.60397 351.7356 548.22784 352.78711 542.9707 C 353.16366 541.08748 354.8206 539.10183 354.63477 537.16406 C 354.28993 533.55881 352.45206 530.92094 352.63477 526.88867 C 352.76475 524.03207 353.80771 521.25449 353.99219 518.40234 C 354.1883 515.37691 352.8519 512.4254 352.64062 509.46875 C 352.27789 504.39436 353.01995 499.32484 352.13281 494.28125 C 351.37702 489.98631 348.5823 486.74804 347.47852 482.66797 C 346.49758 479.04129 347.25586 474.35321 347.25586 470.60547 L 317.77539 470.09961 L 311.96875 468.74023 L 302.58789 470.5293 L 291.86719 470.83594 L 271.31836 485.34766 L 271.76562 480.43359 C 268.39176 478.3699 266.22139 479.05633 262.38477 479.54102 C 263.22097 486.15697 260.20916 488.20872 256.13086 492.94141 L 259.25781 493.38672 L 253.89844 499.10156 L 240.49805 509.30078 L 202.08203 538.44727 L 184.21484 551.45703 L 195.38086 521.5293 C 197.16945 521.85985 204.73633 521.53762 204.73633 518.84766 C 204.73633 516.04291 198.76653 515.36542 199.42188 511.25586 C 200.0647 507.22446 202.41816 503.01184 203.8457 499.19531 C 206.10873 493.14486 207.80572 486.01992 211.05469 480.43359 C 213.22543 476.70105 217.90771 473.34305 218.65625 468.82031 C 218.97572 466.89015 217.18448 465.45034 217.45898 463.45898 C 218.63283 454.94416 224.06102 445.60688 227.07422 437.55078 C 228.29476 434.28769 229.19893 429.18274 231.48242 426.52539 C 232.87431 424.90522 235.90949 425.49023 237.81641 425.49023 C 244.13129 425.49023 249.44467 426.13777 249.88867 433.97852 C 250.06199 437.03256 245.83889 438.63244 244.51758 441.125 C 246.66528 439.39273 249.65135 438.97176 251.52344 436.90625 C 253.23336 435.01989 252.22969 432.07832 253.8418 430.10352 C 254.72134 429.02609 256.30882 428.99237 257.44922 428.28125 C 262.35344 425.22407 269.08158 424.21997 274.89258 425.9375 L 274.89258 426.38477 C 269.82396 431.19523 278.81976 431.7046 282.03906 431.20117 C 286.55333 430.49538 290.04779 426.66006 294.54688 426.06641 C 308.63909 424.20729 324.09827 425.84652 338.32227 425.49805 C 343.52711 425.36954 348.7504 425.49023 353.95703 425.49023 C 355.60621 425.49023 358.61108 426.06228 359.68359 424.45508 C 362.85599 419.70092 357.33403 419.62099 355.75586 417.62695 C 354.60341 416.17029 355.29688 412.52185 355.29688 410.74805 C 359.4176 410.09098 357.97656 403.65595 357.97656 400.47461 C 357.97656 398.5096 358.50254 395.5983 357.51758 393.82227 C 356.52593 392.03326 354.19685 391.50745 352.63477 390.36523 C 348.74365 387.52027 344.02449 383.73704 339.66211 381.71484 C 339.12294 385.88918 338.20413 390.00751 337.91602 394.2207 C 337.80748 395.80111 338.41214 398.42731 337.41602 399.77539 C 336.27339 401.32231 332.48848 401.54245 330.72852 401.98242 C 326.30002 403.08979 321.44067 405.00572 316.88086 405.29297 C 314.91362 405.41671 313.03475 404.48996 311.07422 404.67969 C 307.06338 405.0683 303.99987 408.18763 300.35352 409.53711 C 292.74412 412.3535 282.52327 415.00236 274.44531 415.66211 C 275.57052 408.04334 279.87726 397.02631 284.20703 390.64844 C 285.44393 388.8264 287.72238 387.88449 288.8418 386.08789 C 290.18231 383.93617 289.50914 380.20198 290.67188 377.69336 C 293.5727 371.43386 298.86248 365.7199 303.52148 360.71875 C 307.32372 356.6369 311.54057 352.87346 315.98828 349.50586 C 317.96489 348.00943 321.88193 346.34806 323.01562 344.09766 C 325.65826 338.85439 321.01973 330.23868 322.68945 324.53711 L 334.30273 336.14453 L 345.86914 345.79883 L 348.77148 349.09375 L 357.08398 351.78516 C 354.77548 349.53071 352.71757 348.2025 349.49023 347.76562 L 349.49023 333.4707 C 351.32524 333.46919 353.52083 332.92713 355.29688 333.30859 C 356.75219 333.62127 358.14401 334.81682 359.7168 334.41211 C 363.17151 333.52407 364.23001 328.32528 364.23047 325.43164 L 369.14453 325.43164 L 369.14648 325.43164 C 369.12146 322.6233 367.88526 320.17325 367.8125 317.39258 C 367.63472 310.60912 369.57545 303.93913 369.74023 297.29102 C 369.78713 295.40106 367.8799 293.97955 367.81641 291.92969 C 367.7168 288.71395 369.18743 285.81816 369.14453 282.54883 C 369.08914 278.32135 367.68248 274.41743 367.8125 270.04297 C 367.90898 266.79552 369.31589 264.03284 369.12695 260.66211 C 368.98848 258.19461 367.83959 256.03094 367.80859 253.51562 C 367.75366 249.03216 369.19094 244.93592 369.14453 240.56055 C 369.09986 236.3237 367.69821 232.408 367.8125 228.05273 C 367.86789 225.92562 369.16507 223.87724 369.0332 221.80859 C 368.83844 218.75602 365.73238 220.4941 364.34766 218.92578 C 361.88057 216.13173 363.0457 210.26884 360.48438 207.06641 C 359.1702 205.42258 356.21638 204.51245 356.30078 202.13672 C 356.51296 196.18699 362.26127 194.23801 365.09375 190.00781 C 366.53566 187.85401 368.98691 183.86161 369.80078 181.50391 C 370.7643 178.71409 370.32983 172.20264 373.71484 170.69922 C 374.65926 170.27969 375.60013 170.14284 376.53711 170.17188 z "
       style="font-variation-settings:normal;opacity:1;vector-effect:none;fill:#ff0707;fill-opacity:1;stroke:#000000;stroke-width:3.77953;stroke-linecap:round;stroke-linejoin:round;stroke-miterlimit:4;stroke-dasharray:none;stroke-dashoffset:0;stroke-opacity:1;paint-order:normal;stop-color:#000000;stop-opacity:1"
       id="rect24639" />
    <path
       id="path24666"
       d="m 58.668207,223.6736 0.590932,0.82731 -0.472747,0.47274 -0.118185,-1.30005"
       style="fill:#ff0404;fill-opacity:1;stroke:#000000;stroke-width:1;stroke-linejoin:round;stroke-miterlimit:4;stroke-dasharray:none;stroke-opacity:1" />
    <path
       id="path24664"
       d="m 94.360716,199.68162 c 0.247369,0.38765 0.754154,0.78122 0.903424,1.20196 0.395809,1.11569 -1.246402,2.35311 -1.546007,3.28915 -0.270767,0.84622 0.21392,1.74089 0.159201,2.60011 -0.08462,1.32843 -0.985209,2.41457 -0.661376,3.78199 0.223256,0.94313 2.270139,3.26197 1.340597,4.06563 -0.551463,0.4763 -2.102786,0.18911 -2.795953,0.18911 h -7.4458 c 0.600983,-1.42889 2.277465,-2.65803 2.363743,-4.25474 h -1.772806 c 0.331869,-0.43729 0.760296,-1.03532 0.463648,-1.62271 -0.325017,-0.64412 -1.047139,-0.2281 -0.581838,-1.21378 l 1.536435,0.9455 0.472747,-0.82731 c 0.126579,1.66407 1.454056,-0.0863 2.245553,-0.11819 l 2.894993,-4.49111 2.423426,-3.54561"
       style="fill:#ff0404;fill-opacity:1;stroke:#000000;stroke-width:1;stroke-linejoin:round;stroke-miterlimit:4;stroke-dasharray:none;stroke-opacity:1" />
    <path
       id="path24662"
       d="m 86.560369,200.03618 -0.709123,-0.23638 v -0.23637 l 0.709123,0.47275"
       style="fill:#ff0404;fill-opacity:1;stroke:#000000;stroke-width:1;stroke-linejoin:round;stroke-miterlimit:4;stroke-dasharray:none;stroke-opacity:1" />
    <path
       id="path24660"
       d="m 116.10714,194.3632 0.11819,0.23638 -0.11819,-0.23638"
       style="fill:#ff0404;fill-opacity:1;stroke:#000000;stroke-width:1;stroke-linejoin:round;stroke-miterlimit:4;stroke-dasharray:none;stroke-opacity:1" />
    <path
       id="path24658"
       d="m 92.233332,179.47163 0.236376,1.18187 c 0.996907,-0.20801 0.827308,0.68194 0.827308,1.41824 0,1.64044 0.116416,3.32815 -0.0065,4.96386 -0.08072,1.07432 -1.356079,2.14628 -2.002678,2.95468 -1.484548,1.85554 -2.986824,3.69689 -4.467593,5.55479 -0.464121,0.58266 -1.54695,1.47852 -1.624009,2.24556 -0.05129,0.51057 0.418621,1.14523 0.536807,1.65461 l -1.536431,-0.8273 -4.041998,5.20023 -7.516698,9.33678 -3.805627,4.84567 c -0.174915,-0.74813 0.837359,-1.94891 1.198299,-2.60012 1.308095,-2.35901 2.565249,-4.74876 3.901473,-7.09123 1.953278,-3.42388 3.974159,-6.87375 5.734677,-10.40046 0.321823,-0.64412 0.119485,-1.34378 0.48374,-1.99381 0.297831,-0.53185 0.954124,-0.6784 1.28623,-1.20196 1.422497,-2.24674 2.383125,-4.71803 3.828198,-6.96832 1.018653,-1.58607 1.630982,-3.59407 2.955149,-4.96267 0.672128,-0.69376 1.535368,-0.76704 2.219909,-1.35088 0.781687,-0.66658 0.727915,-1.48797 1.793367,-1.95954"
       style="fill:#ff0404;fill-opacity:1;stroke:#000000;stroke-width:1;stroke-linejoin:round;stroke-miterlimit:4;stroke-dasharray:none;stroke-opacity:1" />
    <path
       id="path24656"
       d="m 122.96197,178.7625 -1.65462,2.71831 c -2.10775,-0.71858 0.53551,-2.55048 1.65462,-2.71831"
       style="fill:#ff0404;fill-opacity:1;stroke:#000000;stroke-width:1;stroke-linejoin:round;stroke-miterlimit:4;stroke-dasharray:none;stroke-opacity:1" />
    <path
       id="path24654"
       d="m 126.50759,173.56227 0.11818,0.23638 h -0.23637 l 0.11819,-0.23638"
       style="fill:#ff0404;fill-opacity:1;stroke:#000000;stroke-width:1;stroke-linejoin:round;stroke-miterlimit:4;stroke-dasharray:none;stroke-opacity:1" />
    <path
       id="path24652"
       d="m 104.17021,165.28918 c 0.50679,2.12264 0.93947,4.67193 0.9455,6.85485 l -7.445787,2.83649 -0.475704,-4.96386 -0.04395,-1.74681 1.819725,-0.94786 5.200236,-2.03281"
       style="fill:#ff0404;fill-opacity:1;stroke:#000000;stroke-width:1;stroke-linejoin:round;stroke-miterlimit:4;stroke-dasharray:none;stroke-opacity:1" />
    <path
       id="path24650"
       d="m 115.75258,123.45095 -0.23638,0.47275 c 1.26638,0.43114 2.29992,0.79752 3.6638,0.47274 l 0.11819,0.11819 c -1.80436,3.81425 -4.54252,6.97517 -6.85473,10.40058 -0.86643,1.28363 -1.86618,3.68721 -3.19117,4.491 l 0.0502,-8.39129 1.29131,-3.42742 0.0767,-3.07287 c 1.95706,0 3.28359,-0.32348 5.08205,-1.06368"
       style="fill:#ff0404;fill-opacity:1;stroke:#000000;stroke-width:1;stroke-linejoin:round;stroke-miterlimit:4;stroke-dasharray:none;stroke-opacity:1" />
    <path
       id="path24648"
       d="m 133.36249,122.26908 -9.0854,16.54619 -0.0185,2.12512 -1.24001,1.03898 -1.00211,1.79976 -0.47275,-0.11819 c -0.73749,1.71147 -1.80046,3.32614 -2.691,4.96386 -0.63301,1.16414 -1.20799,2.01213 -0.26368,3.19105 v 0.11819 l -1.86582,0.75403 -2.4642,4.17094 -1.57933,0.8955 -3.30924,1.62531 v -5.20023 c 0,-0.69234 -0.17823,-1.67672 0.0694,-2.32994 0.47996,-1.26626 1.1639,-1.55073 2.00611,-2.5175 1.19262,-1.36908 2.29767,-2.83496 3.43203,-4.25296 1.98259,-2.47827 4.09708,-4.88657 5.97389,-7.44579 0.58077,-0.79197 0.91276,-1.78451 1.48691,-2.54989 0.44308,-0.59058 1.15859,-0.83038 1.65273,-1.35679 1.76276,-1.87775 3.57799,-4.11031 4.99801,-6.25741 l -0.47275,0.23637 c 0.25387,-1.08035 1.0183,-1.0313 1.69421,-1.69031 1.15162,-1.12301 1.85022,-2.78791 3.15146,-3.74629"
       style="fill:#ff0404;fill-opacity:1;stroke:#000000;stroke-width:1;stroke-linejoin:round;stroke-miterlimit:4;stroke-dasharray:none;stroke-opacity:1" />
    <path
       id="path24646"
       d="m 64.695791,116.71434 -0.118186,0.11819 0.118186,-0.11819"
       style="fill:#ff0404;fill-opacity:1;stroke:#000000;stroke-width:1;stroke-linejoin:round;stroke-miterlimit:4;stroke-dasharray:none;stroke-opacity:1" />
  </g>
</svg>
